{
    "bayi": {
        "before"    : "19.900",
        "after"     : "14.900",
        "pengguna"  : "938"
    },
    "pelajar": {
        "before"    : "46.900",
        "after"     : "23.450",
        "pengguna"  : "4168"
    },
    "personal": {
        "before"    : "58.900",
        "after"     : "38.900",
        "pengguna"  : "10.017"
    },
    "bisnis": {
        "before"    : "109.900",
        "after"     : "65.900",
        "pengguna"  : "3552"
    }
}